Pilas\Pila.class
Expresiones\ParsePost.class
Tiempos\DArray.class
Arrays\Desordered.class
Arrays\OrdArray.class
main\MainApp.class
Tiempos\ArrayBub.class
ListasDobles\DoublyLinkedList.class
Tiempos\ArrayIns1.class
Ordenacion\Selection.class
Navegador\FXMLController.class
Torres\Disco.class
Ordenacion\Radix.class
Tiempos\HeapSort.class
Torres\Hanoi.class
Tiempos\FXMLController.class
Torres\TorresFrame.class
Expresiones\StackPos.class
Expresiones\StackInf.class
Tiempos\Tiempos.class
Ordenacion\BubbleSort.class
Colas\Queues.class
Ordenacion\Shell.class
Tiempos\RadixSort.class
Pilas\FXMLController.class
Ordenacion\Insertion.class
Tiempos\ArraySel.class
Ordenacion\FXMLController.class
Torres\FXMLController.class
Colas\FXMLController.class
Ordenacion\Scene2Controller.class
Tiempos\ArrayIns.class
main\FXMLController.class
Expresiones\FXMLController.class
Expresiones\InToPost.class
Tiempos\ArraySh.class
Arrays\ArraysController.class
ListasDobles\Link.class
Info\FXMLController.class
Ordenacion\Merge.class
Arbol\Node.class
Arbol\Tree.class
Arbol\FXMLController.class
Torres\Poste.class
Intro\FXMLController.class
Ordenacion\Quick.class
ListasDobles\FXMLController.class
